"","Leading.proteins","Gene.names","Protein.names","Phospho..STY..Probabilities","WT_NT.1.1","WT_NT.2.1","WT_NT.3.1","WT_NT.4.1","WT_NT.5.1","COUNT_WT","WT_EGCG.1.1","WT_EGCG.2.1","WT_EGCG.3.1","WT_EGCG.4.1","WT_EGCG.5.1","COUNT.WT_EGCG","WT_EGCG_EE.1.1","WT_EGCG_EE.2.1","WT_EGCG_EE.3.1","WT_EGCG_EE.4.1","COUNT_WT_EGCG_EE","WT_EE.1.1","WT_EE.2.1","WT_EE.3.1","WT_EE.4.1","WT_EE.5.1","COUNT_WT_EE","TG_NT.1.1","TG_NT.2.1","TG_NT.3.1","TG_NT.4.1","TG_NT.5.1","COUNT_TG","TG_EGCG.1.1","TG_EGCG.2.1","TG_EGCG.3.1","TG_EGCG.4.1","COUNT.TG_EGCG","TG_EGCG_EE.1.1","TG_EGCG_EE.2.1","TG_EGCG_EE.3.1","TG_EGCG_EE.4.1","TG_EGCG_EE.5.1","X","TG_EE.1.1","TG_EE.2.1","TG_EE.3.1","TG_EE.4.1","TG_EE.5.1","COUNT.TG_EE"
"59","D3YVE8","Slc35g2","Solute carrier family 35 member G2","D3YVE8_REDYQEILDS(1)PIK",NA,NA,195320,NA,NA,1,418110,339100,154050,104270,NA,4,NA,NA,142010,NA,1,NA,NA,NA,NA,NA,0,222340,NA,NA,NA,NA,1,197800,266630,163410,154090,4,232810,NA,NA,NA,NA,1,NA,184310,179840,108070,NA,3
"113","O08586","Pten","Phosphatidylinositol 3,4,5-trisphosphate 3-phosphatase and dual-specificity protein phosphatase PTEN","O08586_YSDTT(0.001)DS(0.999)DPENEPFDEDQHSQITK",561840,395690,NA,439910,NA,3,NA,690640,NA,NA,NA,1,804620,NA,NA,364500,2,500220,NA,NA,NA,NA,1,345410,NA,NA,NA,NA,1,695440,NA,NA,334180,2,NA,203900,NA,NA,NA,1,NA,NA,377410,NA,222460,2
"133","O35308","Slc16a8","Monocarboxylate transporter 3","O35308_AGS(1)PEQEPEEEAVPELDHESIGGHEAR",NA,NA,NA,325500,NA,1,NA,NA,NA,NA,NA,0,NA,NA,NA,NA,0,NA,NA,NA,NA,NA,0,NA,NA,NA,NA,NA,0,NA,NA,NA,NA,0,NA,NA,NA,NA,NA,0,376520,NA,342370,174080,NA,3
"138","O35551","Rabep1","Rab GTPase-binding effector protein 1","O35551_AQS(0.84)T(0.16)DSLGTSSSLQSK",134880,214570,NA,144890,NA,3,479410,169750,NA,NA,NA,2,164400,NA,NA,NA,1,182100,NA,NA,NA,NA,1,232090,NA,NA,NA,NA,1,218670,NA,NA,NA,1,133050,NA,150950,NA,NA,2,103110,NA,165840,NA,NA,2
"179","O55028","Bckdk","[3-methyl-2-oxobutanoate dehydrogenase [lipoamide]] kinase, mitochondrial","O55028_S(0.859)T(0.123)S(0.018)ATDTHHVELAR",526120,616560,244010,NA,NA,3,1136400,535550,690330,366720,428700,5,860290,133660,NA,NA,2,NA,791080,NA,NA,NA,1,512440,NA,NA,NA,NA,1,698990,648450,NA,NA,2,NA,NA,461250,NA,NA,1,467590,544770,NA,NA,NA,2
"357","P11499","Hsp90aa1;Hsp90ab1","Heat shock protein HSP 90-alpha;Heat shock protein HSP 90-beta","P11499_IEDVGS(0.217)DEEDDS(0.783)GK",522170,NA,157990,NA,707670,3,NA,715600,NA,184360,313580,3,698610,NA,NA,NA,1,671370,NA,NA,NA,NA,1,NA,NA,NA,NA,NA,0,NA,434450,NA,NA,1,NA,NA,280470,NA,NA,1,NA,NA,NA,NA,NA,0
"382","P14873","Map1b","Microtubule-associated protein 1B;MAP1B heavy chain;MAP1 light chain LC1","P14873_AS(0.385)LS(0.615)PMDEPVPDS(0.761)ES(0.239)PVEK",3518700,NA,NA,576950,462560,3,NA,NA,NA,619290,NA,1,NA,NA,NA,354870,1,562080,NA,NA,NA,NA,1,NA,907560,NA,NA,NA,1,NA,NA,NA,508260,1,2769600,NA,NA,194850,209380,3,NA,NA,NA,1658700,NA,1
"457","P16330","Cnp","2,3-cyclic-nucleotide 3-phosphodiesterase","P16330_HFIS(1)GDEPK",298080,245030,95329,NA,NA,3,641600,NA,257990,NA,NA,2,238350,NA,NA,NA,1,233590,NA,NA,NA,NA,1,122670,NA,NA,NA,NA,1,NA,222740,NA,NA,1,NA,97725,NA,NA,NA,1,119360,258370,NA,NA,NA,2
"512","P20357","Map2","Microtubule-associated protein 2","P20357_ASQPSPPAQEAGYSTLAQSYTPDHPS(0.009)ELPEEPS(0.085)S(0.905)PQER",NA,NA,1426200,NA,10610000,2,11384000,NA,NA,4384500,3526900,3,11915000,828870,NA,8133300,3,NA,NA,NA,3236500,NA,1,1069900,NA,NA,NA,NA,1,10585000,NA,6351500,NA,2,5299100,NA,743330,5592600,NA,3,2927500,NA,1908100,759670,NA,3
"535","P20357","Map2","Microtubule-associated protein 2","P20357_RLS(0.015)NVS(0.05)S(0.05)S(0.186)GS(0.699)INLLESPQLATLAEDVTAALAK",NA,NA,NA,NA,NA,0,NA,NA,NA,NA,NA,0,NA,NA,2902100,366280,2,NA,NA,NA,NA,NA,0,NA,NA,NA,NA,NA,0,NA,NA,NA,NA,0,NA,NA,NA,NA,NA,0,1501400,1979200,NA,NA,257970,3
"614","P33173","Kif1a","Kinesin-like protein KIF1A","P33173_S(0.5)DS(0.5)LILDHQWELEK",328740,NA,NA,NA,457620,2,NA,NA,404420,NA,505260,2,NA,176790,NA,607270,2,NA,NA,NA,NA,779290,1,NA,NA,NA,452670,NA,1,NA,803740,823510,NA,2,NA,NA,NA,537950,153120,2,580680,520230,647990,NA,751970,4
"809","P70441","Slc9a3r1","Na(+)/H(+) exchange regulatory cofactor NHE-RF1","P70441_S(0.655)AS(0.305)S(0.041)DTSEELNSQDSPK",1440300,NA,NA,1149100,1274300,3,NA,NA,NA,NA,NA,0,NA,NA,NA,NA,0,NA,NA,NA,NA,NA,0,NA,NA,NA,NA,NA,0,NA,NA,NA,NA,0,NA,NA,NA,NA,NA,0,NA,NA,NA,NA,NA,0
"846","P97492","Rgs14","Regulator of G-protein signaling 14","P97492_S(1)LPLGVEELGQLPLAEGPCGRPLRK",148140,130660,NA,84655,NA,3,NA,459980,NA,NA,NA,1,NA,NA,NA,NA,0,NA,280980,NA,NA,NA,1,NA,NA,133780,NA,NA,1,NA,NA,NA,NA,0,116180,NA,NA,NA,NA,1,113470,NA,NA,NA,NA,1
"877","Q03517","Scg2","Secretogranin-2;Secretoneurin","Q03517_EHLGPGS(0.993)S(0.007)QEMER",NA,NA,610640,1445700,1351100,3,1864500,1257200,NA,474080,NA,3,726270,NA,NA,NA,1,NA,468220,NA,NA,NA,1,NA,NA,NA,NA,NA,0,2959600,NA,NA,NA,1,478720,411820,593100,NA,488020,4,361770,831220,NA,864010,NA,3
"971","Q3UHD9","Agap2","Arf-GAP with GTPase, ANK repeat and PH domain-containing protein 2","Q3UHD9_GAGSRLS(0.212)WPES(0.788)EGK",NA,NA,NA,388770,NA,1,NA,NA,NA,NA,266500,1,NA,NA,NA,451550,1,NA,NA,464680,NA,NA,1,NA,NA,NA,NA,NA,0,NA,NA,349140,NA,1,NA,NA,NA,NA,NA,0,568670,151550,NA,314910,NA,3
"1021","Q3V038","Ttc9","Tetratricopeptide repeat protein 9A","Q3V038_S(0.03)S(0.03)GNPS(0.939)PPALGEGPRPVPPPCVPSGGGAPER",NA,NA,NA,NA,NA,0,NA,550230,NA,416470,NA,2,568840,NA,NA,NA,1,NA,NA,NA,389910,NA,1,NA,NA,NA,NA,270070,1,589900,343380,331480,NA,3,414600,NA,399740,NA,NA,2,NA,NA,421830,219070,319060,3
"1151","Q60855","Ripk1","Receptor-interacting serine/threonine-protein kinase 1","Q60855_QPDMS(0.81)LDNIKMAS(0.095)S(0.095)DLLEKTDLDSGGFGK",NA,2451000,2526100,2377100,3961000,4,1366600,NA,1653700,NA,NA,2,NA,843060,NA,NA,1,NA,NA,NA,NA,NA,0,2927800,NA,NA,NA,NA,1,NA,3091200,NA,NA,1,3722400,607990,1995000,NA,NA,3,1229500,NA,2774700,NA,NA,2
"1198","Q61301","Ctnna2","Catenin alpha-2","Q61301_TSAT(0.004)S(0.996)PIILK",270220,NA,169480,117850,NA,3,NA,327380,NA,126410,NA,2,255800,NA,NA,NA,1,203380,NA,NA,NA,NA,1,284680,NA,NA,NA,NA,1,NA,250530,NA,NA,1,NA,215190,NA,NA,134080,2,161660,NA,NA,NA,NA,1
"1414","Q6PAJ1","Bcr","Breakpoint cluster region protein","Q6PAJ1_HQDGLPYIDDS(0.994)PS(0.005)SSPHLSSK",NA,287610,156880,NA,NA,2,387470,NA,NA,NA,NA,1,584550,NA,NA,NA,1,445580,NA,NA,NA,NA,1,329990,NA,NA,NA,NA,1,NA,NA,NA,208760,1,400180,NA,NA,NA,NA,1,214250,NA,255550,248760,NA,3
"1455","Q6PGF3","Med16","Mediator of RNA polymerase II transcription subunit 16","Q6PGF3_PSCLPVYTATSDT(0.001)QDS(0.087)MS(0.902)LLFRLLT(0.01)K",393340,NA,267290,217560,NA,3,NA,NA,281320,213740,196810,3,NA,NA,NA,NA,0,NA,NA,NA,NA,NA,0,NA,NA,NA,NA,NA,0,NA,NA,NA,NA,0,NA,NA,NA,NA,NA,0,NA,463610,NA,NA,NA,1
"1461","Q6PIC6","Atp1a3","Sodium/potassium-transporting ATPase subunit alpha-3","Q6PIC6_YNTDCVQGLT(0.027)HS(0.973)K",564900,217340,NA,1018400,NA,3,1146100,NA,228710,NA,NA,2,538340,NA,NA,NA,1,601120,NA,NA,NA,NA,1,NA,NA,NA,NA,NA,0,409500,602470,856080,584440,4,486430,NA,NA,NA,NA,1,NA,395300,NA,407220,NA,2
"1474","Q6WVG3","Kctd12","BTB/POZ domain-containing protein KCTD12","Q6WVG3_S(0.15)PS(0.85)GGAAGPLLTPSQSLDGSR",NA,NA,NA,NA,934900,1,1169100,1405200,NA,651680,NA,3,1192800,259240,763380,963120,4,1089900,NA,NA,NA,NA,1,NA,NA,NA,NA,753160,1,NA,NA,NA,NA,0,NA,NA,659500,NA,NA,1,NA,463770,681440,NA,717090,3
"1567","Q80TL4","Kiaa1045","Protein KIAA1045","Q80TL4_RLTEAPSCSVSISHVGPIADS(0.598)S(0.402)PAASSSK",3698600,NA,1499800,2775800,NA,3,5229700,NA,NA,NA,NA,1,NA,NA,NA,NA,0,NA,NA,NA,NA,NA,0,NA,NA,NA,NA,NA,0,NA,3686100,NA,NA,1,NA,NA,NA,NA,NA,0,NA,NA,3954500,NA,NA,1
"1597","Q80U28","Madd","MAP kinase-activating death domain protein","Q80U28_AT(0.18)LS(0.742)DS(0.078)EIETNSATSAIFGK",NA,NA,347590,492810,512860,3,564850,NA,262810,NA,NA,2,NA,NA,NA,471600,1,NA,NA,NA,NA,NA,0,NA,NA,NA,NA,NA,0,NA,NA,NA,NA,0,NA,NA,285630,NA,NA,1,NA,428090,496870,NA,NA,2
"1628","Q80WG5","Lrrc8a","Volume-regulated anion channel subunit LRRC8A","Q80WG5_S(1)RIEQGIVDR",228660,226730,102400,NA,NA,3,436650,NA,267050,NA,NA,2,275410,NA,NA,NA,1,191200,NA,NA,NA,NA,1,NA,NA,432490,NA,NA,1,294840,296210,436270,NA,3,311860,162950,166470,NA,NA,3,110180,280400,NA,NA,337630,3
"1897","Q8C8R3","Ank2","Ankyrin-2","Q8C8R3_EIAS(0.041)PS(0.857)S(0.102)PVK",1995100,884370,638170,NA,NA,3,NA,NA,NA,NA,NA,0,NA,NA,NA,NA,0,NA,NA,NA,NA,NA,0,NA,NA,NA,NA,NA,0,NA,NA,NA,NA,0,NA,NA,NA,NA,NA,0,600140,782520,NA,NA,NA,2
"2070","Q8K4G5","Ablim1","Actin-binding LIM protein 1","Q8K4G5_T(0.159)S(0.159)S(0.66)ES(0.021)IYSRPGSSIPGSPGHTIYAK",1716900,NA,580770,NA,1887400,3,NA,NA,789470,NA,NA,1,NA,235790,1487600,NA,2,NA,NA,NA,NA,NA,0,NA,NA,NA,NA,NA,0,NA,NA,NA,NA,0,NA,595570,NA,NA,NA,1,NA,766430,NA,1409900,NA,2
"2159","Q8VD37","Sgip1","SH3-containing GRB2-like protein 3-interacting protein 1","Q8VD37_RNLS(0.016)S(0.984)EEVAR",561660,775950,NA,9672700,NA,3,NA,NA,NA,NA,NA,0,NA,NA,7306600,NA,1,793160,NA,NA,NA,NA,1,NA,NA,NA,NA,NA,0,NA,869370,NA,NA,1,NA,4866600,NA,NA,NA,1,NA,NA,NA,NA,NA,0
"2279","Q99JP6","Homer3","Homer protein homolog 3","Q99JP6_SQS(1)ADTPGPTER",491760,238410,160900,598910,1058900,5,348820,388250,252220,NA,NA,3,407940,NA,NA,NA,1,NA,369100,NA,NA,NA,1,360000,NA,NA,NA,NA,1,359760,319500,NA,431600,3,NA,256960,313740,NA,NA,2,305600,NA,499900,NA,NA,2
"2354","Q9CR00","Psmd9","26S proteasome non-ATPase regulatory subunit 9","Q9CR00_LAS(0.022)NS(0.978)PVLPQAFAR",NA,NA,NA,NA,NA,0,NA,NA,NA,NA,NA,0,NA,NA,NA,NA,0,NA,NA,NA,NA,NA,0,NA,NA,117800,NA,NA,1,238160,NA,146530,NA,2,NA,NA,NA,NA,NA,0,NA,172930,149230,NA,100340,3
"2402","Q9D5V6","Syap1","Synapse-associated protein 1","Q9D5V6_LS(0.009)AGAAPS(0.096)EES(0.886)PERPVEPT(0.004)EEQQQQPPT(0.005)EDPQFLHQAK",NA,NA,NA,664920,NA,1,NA,NA,NA,NA,NA,0,799280,NA,NA,NA,1,NA,NA,NA,NA,NA,0,NA,NA,NA,NA,1374500,1,1751600,NA,NA,NA,1,NA,NA,NA,NA,NA,0,1778500,NA,880280,1095100,NA,3
"2427","Q9DBU5","Rnf6","E3 ubiquitin-protein ligase RNF6","Q9DBU5_EQLASQPGSDSAAS(0.001)DGDS(0.995)ES(0.002)LRAHS(0.001)DEDSLLR",NA,NA,NA,NA,NA,0,NA,NA,NA,NA,NA,0,NA,NA,NA,NA,0,NA,NA,NA,NA,2611600,1,NA,NA,NA,NA,1694700,1,NA,NA,2085200,2230100,2,NA,240810,NA,NA,NA,1,NA,NA,2451300,1723700,2651700,3
"2435","Q9DCL8","Ppp1r2","Protein phosphatase inhibitor 2","Q9DCL8_T(0.104)S(0.039)AAS(0.857)PPVVPSAEQPRPIVEEELSK",NA,NA,NA,NA,NA,0,NA,NA,539160,NA,NA,1,NA,NA,380650,487950,2,NA,NA,498850,NA,NA,1,NA,NA,NA,551510,NA,1,578660,NA,549250,NA,2,462960,405380,NA,NA,NA,2,464940,NA,515000,355130,430910,4
"2505","Q9JJY3","Smpd3","Sphingomyelin phosphodiesterase 3","Q9JJY3_DGDS(0.002)GS(0.938)LGS(0.059)PSASR",NA,425000,148970,386000,NA,3,465710,NA,NA,NA,NA,1,527520,115760,NA,NA,2,NA,NA,NA,NA,NA,0,NA,58744,NA,NA,NA,1,515410,NA,651910,NA,2,NA,400170,215090,NA,NA,2,447050,NA,467700,NA,NA,2
"2512","Q9JKF6","Pvrl1","Nectin-1","Q9JKF6_AGPLGGS(0.995)S(0.005)YEEEEEEEGGGGGER",NA,1203800,113560,NA,798560,3,NA,380280,NA,NA,NA,1,301670,NA,NA,NA,1,NA,NA,250150,NA,NA,1,NA,NA,NA,NA,NA,0,849670,NA,NA,NA,1,339790,NA,NA,NA,NA,1,NA,NA,207510,197760,NA,2
"2597","Q9QYB5","Add3","Gamma-adducin","Q9QYB5_TEEVLS(0.001)PDGS(0.101)PS(0.024)KS(0.101)PS(0.773)K",541040,216420,137820,NA,NA,3,322040,409850,212650,NA,NA,3,297440,NA,NA,NA,1,NA,365920,NA,NA,NA,1,NA,NA,NA,494660,NA,1,NA,NA,NA,NA,0,145910,212730,NA,NA,NA,2,NA,NA,NA,NA,NA,0
"2706","Q9QYX7","Pclo","Protein piccolo","Q9QYX7_S(0.758)MS(0.242)DPKPLS(0.955)PT(0.044)ADESSR",403570,228210,NA,NA,NA,2,488650,485300,NA,NA,NA,2,1092300,NA,NA,1276500,2,NA,NA,NA,NA,1121200,1,1087000,NA,NA,NA,NA,1,1418200,NA,NA,NA,1,1073000,285650,NA,NA,NA,2,NA,465580,356820,469500,454090,4
"2728","Q9R0G8","Nrk","Nik-related protein kinase","Q9R0G8_IVDFGVS(1)AQVSR",NA,NA,NA,253830,NA,1,NA,131230,NA,NA,NA,1,192570,86639,NA,483880,3,NA,NA,NA,NA,NA,0,173430,NA,NA,NA,NA,1,112560,132300,327820,314270,4,NA,58210,120150,NA,NA,2,63199,NA,151640,155980,NA,3
"2751","Q9WTQ5","Akap12","A-kinase anchor protein 12","Q9WTQ5_EVCVSGGDHT(0.001)QLT(0.001)DLS(0.998)PEEK",NA,NA,181270,NA,NA,1,681050,NA,NA,NA,NA,1,NA,NA,NA,284450,1,634370,NA,NA,NA,NA,1,NA,NA,NA,NA,NA,0,NA,191370,NA,589710,2,352330,NA,NA,310670,NA,2,NA,181620,NA,128570,223730,3
"2899","O08919","Numbl","Numb-like protein","O08919_KAEAAAAPAVAPGPAQPGHVS(0.887)PT(0.738)PAT(0.15)T(0.126)S(0.099)PGEK",NA,NA,NA,NA,823170,1,732960,NA,445840,NA,NA,2,NA,NA,496000,NA,1,NA,NA,NA,NA,681920,1,NA,NA,NA,NA,NA,0,NA,NA,NA,NA,0,713260,NA,342820,NA,NA,2,NA,343480,8989700,465930,NA,3
"2998","P14873","Map1b","Microtubule-associated protein 1B;MAP1B heavy chain;MAP1 light chain LC1","P14873_TLEVVS(0.11)PS(0.161)QS(0.661)VT(0.024)GS(0.076)AGHT(0.871)PY(0.031)Y(0.031)QS(0.027)PT(0.007)DEK",3437100,2876100,NA,NA,1774700,3,NA,920860,NA,NA,NA,1,NA,NA,2881800,NA,1,NA,NA,NA,NA,NA,0,NA,1982700,NA,NA,NA,1,NA,3717900,2897400,NA,2,NA,NA,NA,NA,NA,0,1500300,NA,468150,2890400,NA,3
"3061","P54728","Rad23b","UV excision repair protein RAD23 homolog B","P54728_PAQTPVLT(0.997)S(0.003)PAPADSTPGDSSR",1832600,1808000,NA,1474000,2206500,4,2903900,NA,2031300,NA,1032500,3,2090700,NA,NA,2193700,2,NA,3212800,NA,NA,NA,1,NA,NA,NA,1602000,NA,1,1985700,NA,1370500,NA,2,2136600,NA,NA,NA,703300,2,NA,NA,1918100,NA,NA,1
"3187","Q61548","Snap91","Clathrin coat assembly protein AP180","Q61548_T(0.93)IDT(0.035)S(0.035)PPVDIFATASAAAPVSSAK",NA,1803800,446490,NA,1166700,3,NA,NA,1538300,NA,NA,1,2322400,884170,NA,NA,2,NA,731460,NA,NA,NA,1,NA,NA,NA,NA,1463000,1,2196900,NA,NA,NA,1,3169000,NA,283580,NA,NA,2,NA,NA,NA,NA,NA,0
"3354","Q8C0L9","Gpcpd1","Glycerophosphocholine phosphodiesterase GPCPD1","Q8C0L9_LTLEGLEEDEDDDDDKVS(0.364)PT(0.636)VLHK",NA,NA,NA,NA,NA,0,NA,991530,NA,NA,NA,1,NA,253940,NA,NA,1,NA,NA,746230,NA,NA,1,729460,NA,NA,NA,NA,1,NA,NA,718940,NA,1,1341100,NA,627350,NA,NA,2,NA,747060,693630,727590,NA,3
"3414","Q8VC31","Ccdc9","Coiled-coil domain-containing protein 9","Q8VC31_QGRRAGLGSGGDMTMS(0.227)MT(0.773)GRER",NA,NA,NA,NA,NA,0,NA,439070,NA,176790,165260,3,NA,NA,NA,NA,0,NA,NA,NA,NA,298950,1,NA,NA,NA,NA,300660,1,314810,283870,NA,213130,3,414280,238400,163990,NA,NA,3,235410,139000,NA,223280,207710,4
"3456","Q99L43","Cds2","Phosphatidate cytidylyltransferase 2","Q99L43_LDGET(0.022)AS(0.026)DS(0.006)ES(0.006)RAET(0.939)APLPTSVDDTPEVLNR",909790,NA,276430,NA,NA,2,NA,737460,330140,NA,NA,2,831690,NA,NA,NA,1,NA,NA,NA,NA,NA,0,NA,NA,NA,NA,421440,1,484980,NA,NA,NA,1,NA,NA,NA,NA,NA,0,NA,NA,306500,537980,343820,3
"3484","Q9D415","Dlgap1","Disks large-associated protein 1","Q9D415_SLDSLDPAGLLT(0.885)S(0.115)PK",NA,NA,NA,NA,NA,0,NA,NA,NA,NA,NA,0,255490,NA,181670,NA,2,NA,NA,NA,NA,189990,1,NA,275480,NA,NA,NA,1,NA,NA,NA,NA,0,NA,180280,173160,NA,NA,2,NA,187140,NA,125050,157510,3
"3670","Q9DCL8","Ppp1r2","Protein phosphatase inhibitor 2","Q9DCL8_IDEPNTPYHNMIGDDEDAY(0.679)S(0.294)DS(0.027)EGNEVMTPDILAK",NA,NA,NA,392520,NA,1,NA,NA,261640,NA,NA,1,NA,NA,NA,NA,0,NA,NA,NA,348090,NA,1,NA,NA,605890,NA,NA,1,NA,444850,NA,NA,1,NA,NA,NA,NA,NA,0,351660,NA,467810,424380,NA,3
