"","Leading.proteins","Gene.names","Protein.names","Phospho..STY..Probabilities","WT_NT.1.1","WT_NT.2.1","WT_NT.3.1","WT_NT.4.1","WT_NT.5.1","COUNT_WT","WT_EGCG.1.1","WT_EGCG.2.1","WT_EGCG.3.1","WT_EGCG.4.1","WT_EGCG.5.1","COUNT.WT_EGCG","WT_EGCG_EE.1.1","WT_EGCG_EE.2.1","WT_EGCG_EE.3.1","WT_EGCG_EE.4.1","COUNT_WT_EGCG_EE","WT_EE.1.1","WT_EE.2.1","WT_EE.3.1","WT_EE.4.1","WT_EE.5.1","COUNT_WT_EE","TG_NT.1.1","TG_NT.2.1","TG_NT.3.1","TG_NT.4.1","TG_NT.5.1","COUNT_TG","TG_EGCG.1.1","TG_EGCG.2.1","TG_EGCG.3.1","TG_EGCG.4.1","COUNT.TG_EGCG","TG_EGCG_EE.1.1","TG_EGCG_EE.2.1","TG_EGCG_EE.3.1","TG_EGCG_EE.4.1","TG_EGCG_EE.5.1","X","TG_EE.1.1","TG_EE.2.1","TG_EE.3.1","TG_EE.4.1","TG_EE.5.1","COUNT.TG_EE"
"4","A2A690","Tanc2","Protein TANC2","A2A690_PSQGLPVIQS(1)PPSSPAHR",374050,NA,NA,NA,NA,1,NA,345660,255090,NA,NA,2,445490,NA,NA,215560,2,529410,172370,133170,NA,NA,3,233010,NA,NA,NA,NA,1,157690,318760,206610,250880,4,281380,117660,NA,227290,NA,3,NA,NA,189260,NA,NA,1
"9","A2AG50","Map7d2","MAP7 domain-containing protein 2","A2AG50_S(0.5)NS(0.5)LDDSTEDVQSMDVSPVSK",NA,NA,NA,NA,NA,0,NA,NA,NA,NA,NA,0,NA,NA,166990,NA,1,195240,467350,NA,NA,341730,3,294950,NA,NA,NA,NA,1,243210,NA,NA,192880,2,NA,NA,NA,NA,NA,0,NA,NA,NA,NA,NA,0
"10","A2AG50","Map7d2","MAP7 domain-containing protein 2","A2AG50_S(0.5)NS(0.5)LDDSTEDVQSMDVSPVSK",NA,NA,NA,NA,NA,0,NA,NA,NA,NA,NA,0,NA,NA,166990,NA,1,195240,467350,NA,NA,341730,3,294950,NA,NA,NA,NA,1,243210,NA,NA,192880,2,NA,NA,NA,NA,NA,0,NA,NA,NA,NA,NA,0
"38","A2BH40","Arid1a","AT-rich interactive domain-containing protein 1A","A2BH40_SHHAPMS(0.997)PGS(0.002)S(0.001)GGGGQPLAR",NA,445870,NA,NA,NA,1,637610,527570,NA,NA,NA,2,NA,NA,NA,NA,0,1144600,NA,NA,NA,NA,1,418220,103950,169720,NA,NA,3,397380,NA,NA,NA,1,410610,NA,NA,NA,NA,1,299790,NA,NA,NA,NA,1
"47","B1AZP2","Dlgap4","Disks large-associated protein 4","B1AZP2_AMGDEDS(0.35)DES(0.004)GGGS(0.647)PKPSPK",NA,NA,NA,NA,NA,0,NA,164880,NA,NA,NA,1,210780,NA,NA,NA,1,140410,149880,NA,NA,85572,3,NA,NA,NA,NA,NA,0,NA,NA,NA,156940,1,NA,NA,NA,NA,NA,0,NA,NA,NA,NA,71090,1
"70","E9Q5K9","Ythdc1","YTH domain-containing protein 1","E9Q5K9_GIS(1)PIVFDR",NA,209500,NA,NA,NA,1,156250,149290,114020,115570,87548,5,232070,NA,NA,NA,1,NA,NA,129110,NA,NA,1,206050,142910,NA,106110,75178,4,191730,127170,NA,NA,2,173560,121880,151710,NA,62915,4,NA,NA,NA,92197,NA,1
"78","F6SEU4","Syngap1","Ras/Rap GTPase-activating protein SynGAP","F6SEU4_S(1)QQLTVSAAQK",NA,NA,NA,94280,NA,1,NA,133670,NA,NA,NA,1,129260,NA,157770,NA,2,42580,NA,121380,NA,212130,3,NA,NA,NA,172450,NA,1,NA,NA,NA,146140,1,198120,NA,NA,NA,106210,2,NA,NA,NA,NA,54095,1
"110","O08582","Gtpbp1","GTP-binding protein 1","O08582_S(0.419)RS(0.419)PVDS(0.145)PVPAS(0.017)MFAPEPS(0.846)S(0.154)PGAAR",NA,NA,NA,NA,NA,0,611360,377970,NA,246010,222010,4,619680,NA,NA,NA,1,480790,440880,302230,NA,NA,3,NA,NA,NA,NA,301870,1,NA,NA,331730,442140,2,NA,NA,NA,NA,NA,0,NA,NA,NA,NA,264450,1
"111","O08582","Gtpbp1","GTP-binding protein 1","O08582_S(0.479)RS(0.479)PVDS(0.04)PVPAS(0.003)MFAPEPS(0.111)S(0.889)PGAAR",NA,NA,NA,NA,NA,0,NA,377970,NA,NA,NA,1,NA,NA,230940,286890,2,NA,NA,NA,300390,338150,2,329680,NA,259550,NA,301870,3,NA,NA,NA,442140,1,284900,NA,NA,NA,NA,1,244600,NA,NA,NA,NA,1
"125","O35136","Ncam2","Neural cell adhesion molecule 2","O35136_DGS(1)KEPIVEMR",NA,NA,NA,NA,1143300,1,1420800,1017800,NA,NA,NA,2,1062500,211050,711900,NA,3,623570,1121800,653440,NA,NA,3,762230,NA,NA,NA,NA,1,649600,NA,NA,NA,1,NA,730540,NA,NA,NA,1,NA,293330,NA,NA,NA,1
"201","O88343","Slc4a4","Electrogenic sodium bicarbonate cotransporter 1","O88343_ISENYSDKS(1)DVENADESSSSILK",NA,NA,NA,329110,NA,1,346810,NA,NA,216880,NA,2,377960,NA,NA,NA,1,431500,715980,380010,NA,291030,4,NA,NA,NA,NA,222490,1,676690,NA,NA,219430,2,NA,NA,NA,NA,NA,0,NA,NA,NA,NA,261280,1
"252","O88737","Bsn","Protein bassoon","O88737_SHGPLLPT(0.004)IEDS(0.219)S(0.776)EEEELREEEELLR",NA,NA,NA,NA,NA,0,NA,NA,287050,NA,NA,1,1029500,NA,NA,NA,1,NA,1090800,677370,653490,882180,4,NA,NA,495980,NA,676300,2,NA,NA,NA,850000,1,NA,NA,NA,NA,NA,0,NA,NA,NA,NA,646030,1
"259","O88737","Bsn","Protein bassoon","O88737_S(0.967)QGS(0.033)FEYQDTQDHDYGGR",NA,NA,NA,NA,1192000,1,NA,NA,NA,NA,NA,0,625280,NA,724750,NA,2,NA,1154500,588410,NA,1488200,3,465650,NA,1033800,1344300,533920,4,NA,NA,NA,757150,1,440890,NA,NA,NA,NA,1,462450,NA,NA,NA,NA,1
"286","O88935","Syn1","Synapsin-1","O88935_S(0.931)QS(0.064)LT(0.005)NAFNLPEPAPPRPSLSQDEVK",NA,223770,NA,NA,NA,1,618500,595650,NA,NA,NA,2,NA,NA,436350,NA,1,NA,NA,317570,334200,595820,3,NA,NA,295770,538890,285170,3,569310,NA,NA,365560,2,NA,NA,200670,NA,NA,1,247630,NA,NA,NA,NA,1
"416","P14873","Map1b","Microtubule-associated protein 1B;MAP1B heavy chain;MAP1 light chain LC1","P14873_SLMS(1)S(1)PEDLTK",NA,NA,NA,NA,NA,0,NA,456680,NA,NA,NA,1,NA,NA,NA,NA,0,316820,295110,157820,NA,215870,4,NA,NA,NA,NA,258690,1,NA,NA,271590,193550,2,NA,NA,NA,NA,NA,0,NA,NA,NA,NA,214230,1
"527","P20357","Map2","Microtubule-associated protein 2","P20357_GSAQES(0.898)LDT(0.102)ISPK",193720,NA,NA,NA,NA,1,380440,381910,NA,200900,257670,4,559270,NA,242710,275320,3,NA,486530,323240,254370,NA,3,309220,NA,NA,NA,NA,1,399770,NA,NA,NA,1,NA,NA,NA,NA,NA,0,209900,NA,NA,NA,NA,1
"556","P24788","Cdk11b","Cyclin-dependent kinase 11B","P24788_RGT(0.082)S(0.918)PRPPEGGLGYSQLGDDDLK",NA,NA,210580,NA,NA,1,500420,214720,NA,224770,152560,4,NA,NA,199820,246480,2,331430,320370,NA,190940,422770,4,NA,NA,316840,440720,NA,2,328310,331840,NA,NA,2,390000,NA,NA,NA,NA,1,NA,NA,NA,NA,NA,0
"584","P28652","Camk2b","Calcium/calmodulin-dependent protein kinase type II subunit beta","P28652_ES(0.014)S(0.959)DS(0.021)T(0.006)NTTIEDEDAK",NA,NA,NA,NA,4489000,1,NA,3507900,1600100,NA,NA,2,NA,NA,NA,NA,0,3307500,2592600,NA,NA,3037600,3,NA,NA,1967000,NA,1871500,2,NA,NA,NA,NA,0,2086900,NA,NA,NA,NA,1,NA,NA,NA,NA,2274300,1
"616","P33173","Kif1a","Kinesin-like protein KIF1A","P33173_T(0.001)PQPCS(0.999)RPAS(1)PEPELLPELDSK",NA,NA,NA,NA,NA,0,392310,342340,NA,NA,NA,2,390520,NA,NA,NA,1,325290,364160,NA,179190,NA,3,NA,NA,NA,NA,NA,0,372490,NA,NA,NA,1,NA,NA,193240,NA,NA,1,226630,NA,NA,NA,NA,1
"617","P33173","Kif1a","Kinesin-like protein KIF1A","P33173_T(0.001)PQPCS(0.999)RPAS(1)PEPELLPELDSK",NA,NA,NA,NA,NA,0,392310,342340,NA,NA,NA,2,390520,NA,NA,NA,1,325290,364160,NA,179190,NA,3,NA,NA,NA,NA,NA,0,372490,NA,NA,NA,1,NA,NA,193240,NA,NA,1,226630,NA,NA,NA,NA,1
"805","P70414","Slc8a1","Sodium/calcium exchanger 1","P70414_AVS(1)MHEVNMEMAENDPVSK",NA,NA,NA,NA,NA,0,NA,NA,NA,NA,NA,0,NA,NA,NA,231770,1,NA,427950,NA,176490,183080,3,268980,NA,NA,NA,NA,1,376330,NA,NA,NA,1,NA,NA,NA,NA,86436,1,NA,NA,100240,NA,NA,1
"990","Q3UM45","Ppp1r7","Protein phosphatase 1 regulatory subunit 7","Q3UM45_GAGQQQS(1)QEMMEVDR",NA,NA,NA,NA,370260,1,273360,265460,NA,170190,170190,4,297240,NA,313540,387050,3,285590,182070,271360,297360,NA,4,NA,NA,175580,411450,NA,2,269470,NA,290560,329720,3,152070,NA,NA,NA,NA,1,NA,NA,233440,NA,NA,1
"1014","Q3UTJ2","Sorbs2","Sorbin and SH3 domain-containing protein 2","Q3UTJ2_SFISSS(0.014)PS(0.077)S(0.842)PS(0.067)R",NA,NA,NA,289350,NA,1,NA,NA,NA,156430,NA,1,NA,133120,378020,690940,3,NA,NA,557300,NA,330240,2,554930,NA,315920,NA,307190,3,714490,372330,NA,456290,3,498210,NA,NA,188840,NA,2,NA,NA,NA,NA,260450,1
"1076","Q5DTL9","Slc4a10","Sodium-driven chloride bicarbonate exchanger","Q5DTL9_EEEQS(1)MLAMEDEGTVQLPLEGHYR",NA,130790,NA,NA,NA,1,383630,351290,NA,NA,NA,2,335430,NA,NA,NA,1,276040,216780,NA,292770,NA,3,204110,NA,129110,NA,NA,2,294000,221570,NA,159160,3,NA,NA,NA,NA,NA,0,NA,NA,NA,NA,157530,1
"1096","Q5HZI1","Mtus1","Microtubule-associated tumor suppressor 1 homolog","Q5HZI1_S(0.999)LLVGS(0.999)APKT(0.322)S(0.759)T(0.759)T(0.099)PGRS(0.043)S(0.03)S(0.03)KPDS(0.96)R",NA,10361000,NA,NA,NA,1,8701700,NA,NA,NA,NA,1,24573000,822800,NA,NA,2,23268000,NA,15604000,NA,18864000,3,10341000,NA,NA,NA,NA,1,NA,14377000,NA,NA,1,8839900,NA,NA,NA,NA,1,4443600,NA,NA,NA,NA,1
"1206","Q61361","Bcan","Brevican core protein","Q61361_ELET(0.17)PS(0.83)EEK",NA,NA,NA,NA,NA,0,NA,NA,NA,NA,817940,1,NA,NA,NA,NA,0,2077800,NA,1239000,1333100,NA,3,NA,NA,NA,2208400,1035500,2,NA,NA,NA,1216900,1,NA,NA,NA,NA,NA,0,NA,1108600,NA,NA,NA,1
"1283","Q640R3","Hepacam","Hepatocyte cell adhesion molecule","Q640R3_DKDS(0.877)S(0.123)EPDENPATEPR",NA,289170,NA,NA,NA,1,NA,570110,NA,NA,260230,2,NA,NA,NA,NA,0,NA,618470,481860,NA,NA,2,340090,114560,466280,NA,NA,3,NA,NA,NA,NA,0,NA,NA,NA,435120,NA,1,183540,NA,NA,NA,NA,1
"1312","Q68EF6","Begain","Brain-enriched guanylate kinase-associated protein","Q68EF6_GDIYCS(1)DPALYCPDER",NA,NA,NA,NA,NA,0,NA,489670,NA,NA,NA,1,NA,NA,243390,NA,1,332120,NA,NA,248810,357730,3,NA,NA,NA,364730,190320,2,464930,343680,NA,201080,3,265380,NA,NA,NA,NA,1,NA,NA,135910,NA,NA,1
"1342","Q69ZF3","Gba2","Non-lysosomal glucosylceramidase","Q69ZF3_S(0.003)RRPS(0.989)VT(0.008)QGTGLSTQPECGPK",598350,NA,NA,NA,NA,1,937640,968980,NA,NA,517420,3,917560,NA,410410,NA,2,602610,NA,522660,NA,NA,2,426340,151650,NA,610170,546600,4,642950,874840,NA,NA,2,NA,134870,562940,NA,NA,2,NA,415990,NA,NA,NA,1
"1367","Q6IR34","Gpsm1","G-protein-signaling modulator 1","Q6IR34_EGS(0.642)HS(0.358)PLDSADVR",NA,NA,NA,NA,NA,0,388110,148460,NA,NA,104400,3,NA,NA,204880,173400,2,NA,231570,NA,210900,290580,3,NA,NA,NA,249390,NA,1,301940,NA,NA,NA,1,NA,NA,NA,NA,NA,0,NA,NA,NA,NA,113050,1
"1373","Q6NVE8","Wdr44","WD repeat-containing protein 44","Q6NVE8_EYVSNDAT(0.008)QS(0.992)DDEEK",420450,NA,NA,NA,NA,1,338290,447740,NA,NA,NA,2,461850,NA,NA,NA,1,689860,NA,382760,NA,467060,3,214820,73296,NA,NA,NA,2,465230,501890,665040,402860,4,NA,NA,207670,NA,NA,1,NA,NA,NA,363180,NA,1
"1377","Q6NZJ6","Eif4g1","Eukaryotic translation initiation factor 4 gamma 1","Q6NZJ6_REATLPPVS(1)PPK",336130,NA,NA,NA,NA,1,NA,NA,300390,NA,NA,1,NA,170010,NA,295890,2,NA,224040,204610,214790,180890,4,NA,165120,NA,561900,NA,2,NA,336280,NA,NA,1,NA,251140,362740,397820,NA,3,NA,NA,357320,NA,NA,1
"1432","Q6PDG8","Mon1a","Vacuolar fusion protein MON1 homolog A","Q6PDG8_S(1)YEDLTELEDR",415960,NA,NA,NA,NA,1,346000,209890,NA,NA,NA,2,280540,NA,161920,NA,2,249590,399550,247740,NA,NA,3,197470,NA,NA,NA,140880,2,162620,NA,NA,NA,1,NA,NA,121690,NA,NA,1,NA,NA,NA,NA,165990,1
"1439","Q6PE13","Prrt3","Proline-rich transmembrane protein 3","Q6PE13_GSVGPAPS(0.994)LS(0.006)ELDLRPPS(0.083)PINLS(0.917)R",NA,NA,1305200,NA,NA,1,2968700,395850,90000,NA,NA,3,NA,1097000,NA,NA,1,1926900,393900,1031400,NA,NA,3,2164200,NA,NA,NA,NA,1,1295900,NA,NA,NA,1,NA,NA,834830,NA,NA,1,207530,NA,NA,NA,NA,1
"1476","Q6WVG3","Kctd12","BTB/POZ domain-containing protein KCTD12","Q6WVG3_SPSGGAAGPLLT(0.001)PS(0.007)QS(0.986)LDGS(0.006)R",NA,NA,NA,NA,428430,1,NA,NA,NA,312080,NA,1,552010,NA,261690,NA,2,NA,506740,515100,NA,NA,2,396100,NA,271050,NA,282230,3,329400,NA,622800,NA,2,NA,474020,NA,NA,NA,1,NA,416750,NA,NA,NA,1
"1520","Q7TPB0","Lppr3","Lipid phosphate phosphatase-related protein type 3","Q7TPB0_GLGLPDEAS(1)PVHLR",NA,NA,NA,NA,NA,0,346490,NA,NA,NA,85074,2,237970,97399,113160,153620,4,NA,258710,NA,114630,156810,3,169940,NA,NA,NA,NA,1,NA,NA,NA,NA,0,217760,NA,NA,NA,NA,1,NA,NA,NA,NA,NA,0
"1575","Q80TV8","Clasp1","CLIP-associating protein 1","Q80TV8_SRS(1)DIDVNAAASAK",NA,NA,NA,NA,NA,0,NA,NA,NA,NA,NA,0,NA,NA,560760,NA,1,NA,NA,722260,481900,900420,3,NA,NA,NA,NA,NA,0,NA,NA,NA,NA,0,NA,NA,NA,NA,NA,0,NA,NA,NA,NA,NA,0
"1631","Q80WT5","Aftph","Aftiphilin","Q80WT5_HLLETHS(0.12)S(0.88)PAK",NA,NA,198850,NA,NA,1,NA,NA,279640,NA,NA,1,447060,NA,NA,467720,2,NA,NA,345010,322420,184920,3,NA,NA,NA,NA,NA,0,298700,NA,496730,NA,2,NA,NA,NA,239300,NA,1,NA,NA,NA,NA,NA,0
"1669","Q80YV2","Zc3hc1","Nuclear-interacting partner of ALK","Q80YV2_SMGTGDSAGVEVPS(0.5)S(0.5)PLRR",NA,NA,NA,NA,NA,0,NA,230680,NA,NA,NA,1,NA,NA,NA,NA,0,NA,450900,NA,NA,NA,1,215460,NA,164260,NA,207660,3,NA,NA,NA,NA,0,NA,NA,NA,NA,153600,1,NA,NA,NA,NA,NA,0
"1670","Q80YV2","Zc3hc1","Nuclear-interacting partner of ALK","Q80YV2_SMGTGDSAGVEVPS(0.5)S(0.5)PLRR",NA,NA,NA,NA,NA,0,NA,230680,NA,NA,NA,1,NA,NA,NA,NA,0,NA,450900,NA,NA,NA,1,215460,NA,164260,NA,207660,3,NA,NA,NA,NA,0,NA,NA,NA,NA,153600,1,NA,NA,NA,NA,NA,0
"1683","Q810B9","Slitrk3","SLIT and NTRK-like protein 3","Q810B9_LFEDSGGNS(0.003)GGS(0.044)GGGGRPT(0.111)LS(0.111)S(0.73)PEK",NA,NA,153080,NA,NA,1,NA,NA,262610,NA,NA,1,658330,NA,362640,NA,2,NA,460690,658540,NA,363400,3,373550,178080,472940,NA,392500,4,NA,NA,322800,NA,1,NA,NA,NA,348330,NA,1,NA,NA,NA,NA,NA,0
"1692","Q812A2","Srgap3","SLIT-ROBO Rho GTPase-activating protein 3","Q812A2_MAT(0.002)FGS(0.996)AGS(0.001)INYPDK",NA,253010,NA,NA,NA,1,420970,NA,NA,NA,NA,1,NA,NA,NA,NA,0,NA,284910,351170,NA,208580,3,NA,NA,NA,NA,NA,0,NA,NA,269430,NA,1,NA,NA,164560,NA,NA,1,NA,NA,304460,NA,NA,1
"1717","Q8BGD9","Eif4b","Eukaryotic translation initiation factor 4B","Q8BGD9_S(0.058)QS(0.941)S(0.001)DTEQPS(0.975)PT(0.011)S(0.014)GGGK",NA,NA,NA,NA,719890,1,NA,686140,NA,NA,NA,1,NA,NA,260580,NA,1,NA,480910,390380,296710,NA,3,NA,NA,314940,NA,500330,2,485250,NA,328500,392530,3,328480,344590,159550,NA,NA,3,NA,243170,NA,NA,NA,1
"1718","Q8BGD9","Eif4b","Eukaryotic translation initiation factor 4B","Q8BGD9_S(0.058)QS(0.941)S(0.001)DTEQPS(0.975)PT(0.011)S(0.014)GGGK",NA,NA,NA,NA,719890,1,NA,686140,NA,NA,NA,1,NA,NA,260580,NA,1,NA,480910,390380,296710,NA,3,NA,NA,314940,NA,500330,2,485250,NA,328500,392530,3,328480,344590,159550,NA,NA,3,NA,243170,NA,NA,NA,1
"1722","Q8BGT8","Phyhipl","Phytanoyl-CoA hydroxylase-interacting protein-like","Q8BGT8_NLS(1)LEAIQLCDR",136210,NA,NA,NA,NA,1,296680,201260,NA,63961,NA,3,NA,NA,NA,NA,0,219510,NA,154330,NA,95421,3,293220,NA,NA,222760,NA,2,NA,NA,NA,103930,1,259430,NA,NA,NA,NA,1,NA,NA,149990,NA,NA,1
"1739","Q8BIE6","Frmd4a","FERM domain-containing protein 4A","Q8BIE6_AAGALGSAS(0.001)S(0.045)GS(0.953)MPNLAAR",NA,NA,NA,NA,NA,0,461360,NA,NA,195020,138470,3,305310,NA,163750,NA,2,250720,324090,228160,NA,141720,4,311960,116050,234500,297320,156280,5,217370,NA,NA,250150,2,NA,149880,NA,238730,214820,3,NA,NA,NA,NA,NA,0
"1749","Q8BJI1","Slc6a17","Sodium-dependent neutral amino acid transporter SLC6A17","Q8BJI1_VPS(1)EAPSPMPTHR",NA,NA,NA,NA,NA,0,450010,371070,NA,NA,NA,2,381280,NA,NA,NA,1,174600,1038600,NA,NA,503640,3,457680,NA,NA,NA,NA,1,558450,NA,NA,NA,1,NA,194550,NA,NA,NA,1,NA,NA,NA,NA,NA,0
"1750","Q8BJI1","Slc6a17","Sodium-dependent neutral amino acid transporter SLC6A17","Q8BJI1_VPS(0.007)EAPS(0.977)PMPT(0.017)HR",NA,233840,NA,NA,NA,1,401870,238430,NA,NA,NA,2,NA,NA,149940,343350,2,166940,688890,366610,204560,460950,5,208970,NA,NA,NA,NA,1,460800,NA,NA,NA,1,NA,NA,NA,NA,NA,0,195860,NA,NA,NA,NA,1
"1751","Q8BKC8","Pi4kb","Phosphatidylinositol 4-kinase beta","Q8BKC8_RELPTLSPAPDT(0.001)GLS(0.383)PS(0.616)K",NA,195880,NA,NA,NA,1,NA,146000,NA,111840,NA,2,238100,NA,NA,NA,1,NA,324730,NA,94882,NA,2,188270,NA,NA,195360,119450,3,191730,NA,NA,NA,1,NA,NA,89642,207060,NA,2,158350,NA,NA,NA,NA,1
"1835","Q8BUV3","Gphn","Gephyrin;Molybdopterin adenylyltransferase;Molybdopterin molybdenumtransferase","Q8BUV3_AS(0.968)HS(0.032)AVDITK",NA,NA,394940,NA,NA,1,1184200,NA,NA,NA,NA,1,NA,NA,NA,NA,0,1020900,NA,NA,1244600,1262300,3,NA,NA,NA,NA,NA,0,1475000,1115400,NA,NA,2,NA,NA,NA,NA,NA,0,NA,NA,NA,NA,NA,0
"1840","Q8BUV3","Gphn","Gephyrin;Molybdopterin adenylyltransferase;Molybdopterin molybdenumtransferase","Q8BUV3_EVHDELEDLPS(1)PPPPLS(0.612)PPPT(0.316)T(0.167)S(0.904)PHK",NA,NA,NA,930460,NA,1,NA,1341700,NA,NA,NA,1,NA,NA,NA,NA,0,NA,1137000,723060,516270,639080,4,NA,NA,457730,NA,749960,2,967860,NA,NA,NA,1,NA,NA,NA,NA,NA,0,NA,NA,NA,NA,621510,1
"1851","Q8BYI8","Kiaa1467","Uncharacterized protein KIAA1467","Q8BYI8_SALGDLPEPDS(1)DADVAGAAK",NA,NA,NA,NA,NA,0,NA,564960,NA,NA,NA,1,416770,NA,162970,NA,2,316250,331120,258550,NA,NA,3,NA,NA,NA,NA,203210,1,NA,233670,216390,NA,2,286700,130730,NA,NA,NA,2,NA,NA,NA,NA,NA,0
"1885","Q8C419","Gpr158","Probable G-protein coupled receptor 158","Q8C419_S(0.994)IDKT(0.006)EVCPWEIHSQSLLEDENR",NA,NA,NA,NA,NA,0,NA,NA,NA,NA,NA,0,NA,NA,NA,192740,1,NA,NA,267700,295430,199780,3,NA,NA,NA,NA,176250,1,NA,NA,NA,188360,1,NA,NA,NA,NA,NA,0,NA,NA,NA,NA,NA,0
"1924","Q8C8R3","Ank2","Ankyrin-2","Q8C8R3_S(1)VIEIPTAPVDNVPSAESK",NA,424080,NA,NA,NA,1,926500,NA,120160,NA,NA,2,NA,NA,NA,205190,1,326500,733220,278260,150130,337930,5,NA,NA,NA,NA,NA,0,417600,NA,NA,NA,1,NA,NA,NA,139360,NA,1,533310,NA,NA,NA,NA,1
"1969","Q8CHC4","Synj1","Synaptojanin-1","Q8CHC4_T(0.586)S(0.637)PCQS(0.76)PT(0.017)VPEYSAPSLPIRPSR",NA,NA,NA,NA,NA,0,860760,473560,NA,NA,NA,2,408920,NA,261300,NA,2,382080,1077200,561950,335990,655320,5,487130,NA,286090,NA,348670,3,NA,NA,NA,NA,0,NA,NA,192970,NA,NA,1,NA,NA,NA,NA,255010,1
"2049","Q8K2P7","Slc38a1","Sodium-coupled neutral amino acid transporter 1","Q8K2P7_RS(0.912)LT(0.055)NS(0.033)HLEK",NA,253110,NA,NA,NA,1,NA,NA,225790,NA,NA,1,NA,NA,193900,NA,1,NA,NA,196560,221180,238350,3,NA,NA,NA,NA,NA,0,NA,NA,325740,NA,1,NA,NA,NA,NA,164020,1,NA,199270,NA,NA,NA,1
"2126","Q8R4U7","Luzp1","Leucine zipper protein 1","Q8R4U7_EKPDS(1)DDDLDIESFVTAK",NA,NA,NA,194170,NA,1,178040,358760,NA,NA,83583,3,NA,NA,NA,NA,0,317120,232730,212170,241050,199970,5,NA,NA,NA,NA,NA,0,256370,NA,NA,218170,2,NA,NA,NA,NA,NA,0,NA,NA,208860,NA,NA,1
"2167","Q8VD37","Sgip1","SH3-containing GRB2-like protein 3-interacting protein 1","Q8VD37_Y(0.999)NS(0.001)PELDEEGYS(1)IR",392110,NA,NA,NA,NA,1,242380,522350,NA,NA,NA,2,450380,NA,NA,NA,1,329650,248970,NA,NA,NA,2,212570,69567,NA,355620,NA,3,455620,NA,NA,NA,1,NA,NA,NA,NA,NA,0,NA,NA,285380,NA,NA,1
"2168","Q8VD37","Sgip1","SH3-containing GRB2-like protein 3-interacting protein 1","Q8VD37_YNSPELDEEGYSIRPEEPGS(0.843)T(0.157)K",NA,451060,NA,NA,NA,1,615770,427800,400480,NA,NA,3,NA,NA,NA,NA,0,NA,604520,486380,315740,NA,3,318120,NA,NA,NA,NA,1,407180,NA,393600,NA,2,604020,220570,NA,NA,NA,2,NA,712370,NA,NA,NA,1
"2235","Q91XM9","Dlg2","Disks large homolog 2","Q91XM9_TSLPPIS(0.003)PGRY(0.001)S(0.997)PIPK",NA,NA,NA,NA,NA,0,NA,NA,NA,NA,NA,0,NA,NA,310840,NA,1,479720,NA,NA,607460,347650,3,NA,NA,NA,NA,NA,0,NA,NA,NA,NA,0,NA,NA,NA,NA,NA,0,NA,NA,NA,NA,NA,0
"2264","Q922S4","Pde2a","cGMP-dependent 3,5-cyclic phosphodiesterase","Q922S4_GLPS(0.933)NNS(0.067)LDFLDEEYEVPDLDGTR",NA,176120,NA,NA,NA,1,NA,409390,NA,NA,NA,1,258340,NA,NA,NA,1,232040,372650,277410,154700,532630,5,NA,NA,NA,NA,210210,1,491030,229110,266130,NA,3,NA,NA,159120,NA,NA,1,NA,NA,NA,NA,232890,1
"2274","Q99104","Myo5a","Unconventional myosin-Va","Q99104_RT(0.03)S(0.248)S(0.721)IADEGTYTLDSILR",NA,NA,NA,NA,NA,0,NA,NA,NA,NA,NA,0,NA,NA,NA,NA,0,107570,165000,150840,NA,NA,3,132380,NA,NA,NA,NA,1,NA,NA,NA,NA,0,257150,NA,NA,NA,NA,1,NA,NA,NA,NA,NA,0
"2309","Q99NF2","Nsmf","NMDA receptor synaptonuclear signaling and neuronal migration factor","Q99NF2_MYS(1)VDGVSDDVPIR",155920,NA,NA,NA,NA,1,NA,NA,NA,122790,NA,1,NA,NA,74403,191700,2,152960,120570,109010,121070,188180,5,127970,NA,131540,NA,129930,3,138690,NA,NA,153710,2,NA,126620,NA,NA,NA,1,NA,NA,NA,NA,NA,0
"2364","Q9CWE0","Mtfr1l","Mitochondrial fission regulator 1-like","Q9CWE0_AS(0.03)S(0.97)FADMMGILK",NA,NA,NA,82590,NA,1,NA,117890,NA,NA,NA,1,168760,NA,NA,97647,2,93680,91615,NA,NA,88026,3,NA,NA,NA,NA,NA,0,NA,NA,100730,NA,1,NA,NA,NA,NA,NA,0,NA,NA,NA,NA,129650,1
"2399","Q9D4J7","Phf6","PHD finger protein 6","Q9D4J7_TAHNSEADLEESFNEHELEPS(0.128)S(0.872)PK",NA,NA,NA,NA,NA,0,NA,618100,NA,NA,NA,1,NA,NA,256640,NA,1,446170,494550,301830,NA,NA,3,NA,NA,NA,NA,NA,0,NA,447410,NA,419540,2,NA,NA,NA,NA,NA,0,NA,NA,450550,NA,NA,1
"2403","Q9D6E4","Ttc9b","Tetratricopeptide repeat protein 9B","Q9D6E4_PGGLPTPS(0.016)PGPT(0.191)T(0.191)S(0.602)PGPAR",NA,NA,NA,NA,NA,0,NA,309090,130080,NA,NA,2,NA,NA,232530,325060,2,NA,480420,238260,264080,NA,3,401160,NA,NA,NA,NA,1,338610,172560,NA,NA,2,NA,NA,NA,NA,NA,0,NA,NA,NA,NA,NA,0
"2404","Q9D6W8","0","Uncharacterized protein C17orf59 homolog","Q9D6W8_T(0.068)LS(0.932)GEEEAESVGVSSR",NA,NA,144640,NA,NA,1,NA,NA,NA,NA,NA,0,305580,NA,NA,NA,1,357670,423220,250740,NA,NA,3,280670,214560,NA,NA,NA,2,NA,NA,NA,NA,0,NA,NA,NA,NA,NA,0,218520,NA,NA,NA,NA,1
"2446","Q9EPJ9","Arfgap1","ADP-ribosylation factor GTPase-activating protein 1","Q9EPJ9_EWSLES(0.058)S(0.747)PAQNWT(0.195)PPQPK",NA,193630,NA,NA,NA,1,NA,212970,NA,156700,164520,3,370900,NA,203320,NA,2,NA,311480,173970,149830,210660,4,231020,NA,192780,NA,230010,3,274500,185590,173810,237280,4,NA,NA,127730,NA,NA,1,NA,NA,NA,NA,NA,0
"2459","Q9ERU9","Ranbp2","E3 SUMO-protein ligase RanBP2","Q9ERU9_GGEDEDGS(1)DEDVVHNEDIHFEPIVSLPEVEVK",NA,NA,NA,453780,NA,1,NA,345840,NA,NA,NA,1,NA,NA,NA,NA,0,464840,488750,244050,NA,309700,4,NA,NA,NA,NA,303250,1,NA,372100,390120,444180,3,NA,NA,NA,NA,NA,0,NA,NA,NA,NA,643760,1
"2506","Q9JJY3","Smpd3","Sphingomyelin phosphodiesterase 3","Q9JJY3_DGDS(0.001)GS(0.034)LGS(0.959)PS(0.006)AS(0.001)R",NA,NA,NA,NA,NA,0,NA,NA,NA,331760,NA,1,NA,NA,NA,405480,1,NA,674130,NA,373460,NA,2,421960,NA,409780,NA,367940,3,NA,NA,NA,262620,1,312290,NA,NA,274800,NA,2,NA,NA,NA,NA,341280,1
"2565","Q9QXL2","Kif21a","Kinesin-like protein KIF21A","Q9QXL2_LISES(0.957)S(0.043)PMNEFETLTAK",457760,NA,NA,NA,NA,1,NA,NA,252800,NA,338100,2,NA,270730,NA,589610,2,NA,NA,462490,392680,420290,3,NA,NA,NA,NA,545520,1,669890,NA,NA,612180,2,NA,NA,369890,NA,NA,1,NA,NA,NA,NA,NA,0
"2660","Q9QYR6","Map1a","Microtubule-associated protein 1A;MAP1A heavy chain;MAP1 light chain LC2","Q9QYR6_MAS(0.175)PPPS(0.822)GPPS(0.001)AAHT(0.002)PFHQSPVEEK",NA,610390,NA,NA,NA,1,1833500,516940,NA,NA,NA,2,915630,NA,574940,518830,3,730410,NA,661620,NA,1168100,3,600090,NA,NA,NA,738830,2,NA,NA,590960,439500,2,NA,3242200,560940,NA,NA,2,NA,NA,538460,NA,NA,1
"2679","Q9QYR6","Map1a","Microtubule-associated protein 1A;MAP1A heavy chain;MAP1 light chain LC2","Q9QYR6_VPLS(0.834)RS(0.16)PQAQDT(0.005)LGS(0.001)LAGGQTGCTIQLLPEQDK",944960,NA,NA,NA,NA,1,1593100,NA,NA,NA,546090,2,737270,350020,NA,NA,2,678520,NA,466990,NA,395270,3,827550,NA,NA,NA,657530,2,NA,NA,NA,733360,1,NA,459800,NA,NA,805530,2,NA,435360,NA,NA,NA,1
"2708","Q9QYX7","Pclo","Protein piccolo","Q9QYX7_SSCSEYSPSIESDPEGFEIS(1)PEK",277460,NA,NA,NA,NA,1,574640,963990,NA,172100,NA,3,429560,NA,NA,NA,1,927040,NA,286230,NA,330720,3,NA,NA,NA,258870,313410,2,620860,NA,NA,319060,2,571920,NA,NA,NA,NA,1,NA,NA,NA,NA,NA,0
"2716","Q9QYX7","Pclo","Protein piccolo","Q9QYX7_VLYSPIS(0.038)PLS(0.962)PGHALEPAFVPYEK",NA,NA,NA,NA,NA,0,290850,NA,NA,NA,NA,1,NA,NA,NA,NA,0,NA,289950,172790,NA,212720,3,224000,NA,NA,NA,NA,1,236270,NA,NA,NA,1,NA,150720,NA,129730,NA,2,180930,NA,NA,NA,NA,1
"2725","Q9R0A0","Pex14","Peroxisomal membrane protein PEX14","Q9R0A0_DS(0.829)HS(0.155)PEGS(0.007)T(0.007)AT(0.002)YHLLGPQEEGEGVLDVK",NA,NA,NA,NA,NA,0,NA,NA,NA,NA,NA,0,NA,NA,NA,NA,0,563390,653360,NA,NA,347720,3,NA,NA,NA,NA,418770,1,NA,NA,NA,NA,0,NA,NA,NA,NA,NA,0,NA,NA,NA,NA,NA,0
"2740","Q9R1L5","Mast1","Microtubule-associated serine/threonine-protein kinase 1","Q9R1L5_Y(0.109)HHVNS(0.76)Y(0.109)DEDDT(0.021)T(0.001)EEEPVEIR",NA,NA,NA,NA,NA,0,NA,NA,NA,156170,NA,1,NA,NA,NA,472200,1,NA,572910,266590,NA,417860,3,NA,NA,NA,NA,440490,1,429680,NA,344950,359470,3,NA,NA,NA,397000,NA,1,NA,NA,NA,373570,NA,1
"2788","Q9Z0J4","Nos1","Nitric oxide synthase, brain","Q9Z0J4_GNVPVVLNNPYSENEQS(0.002)PAS(0.019)GKQS(0.901)PT(0.078)K",NA,NA,638650,NA,NA,1,2078600,2706200,NA,934290,1097100,4,NA,NA,NA,NA,0,1848500,1148300,NA,1286700,NA,3,NA,NA,1566800,NA,NA,1,1933800,1657300,1426500,1879800,4,1825500,NA,NA,NA,1586900,2,NA,NA,NA,NA,1483700,1
"2789","Q9Z0P4","Palm","Paralemmin-1","Q9Z0P4_ADEVT(0.01)LS(0.962)EAGS(0.013)T(0.014)AGPAEPR",NA,348490,NA,NA,NA,1,NA,NA,258000,156490,NA,2,821580,NA,NA,NA,1,NA,416780,262160,NA,214150,3,174140,NA,NA,230810,NA,2,353590,NA,NA,NA,1,NA,186880,NA,NA,NA,1,NA,NA,NA,NA,NA,0
"2828","Q9Z1X2","Ptdss2","Phosphatidylserine synthase 2","Q9Z1X2_VAGGS(0.045)GS(0.676)ES(0.279)PLLK",NA,NA,NA,549060,NA,1,784250,NA,NA,NA,NA,1,829840,NA,NA,353550,2,NA,1176200,620170,495140,NA,3,NA,NA,354080,NA,NA,1,676460,597340,NA,NA,2,NA,NA,281350,NA,NA,1,NA,NA,NA,NA,NA,0
"2898","O08553","Dpysl2","Dihydropyrimidinase-related protein 2","O08553_TVTPAS(0.045)S(0.954)AKT(0.868)S(0.134)PAK",NA,NA,4415300,NA,NA,1,NA,NA,NA,NA,NA,0,42124000,4046500,NA,NA,2,62642000,NA,NA,383700,472720,3,24526000,NA,NA,NA,NA,1,NA,NA,NA,45593000,1,NA,NA,24026000,NA,NA,1,26313000,NA,NA,NA,NA,1
"3003","P15508","Sptb","Spectrin beta chain, erythrocytic","P15508_ERQT(0.97)PERPT(0.03)EEPGPQEEEGETAGEAPQVHHAATER",NA,NA,NA,NA,NA,0,499630,NA,NA,NA,533840,2,842030,NA,NA,NA,1,NA,339670,387850,551950,NA,3,390550,NA,NA,312950,NA,2,336820,NA,NA,640190,2,450980,NA,NA,566160,NA,2,NA,NA,NA,NA,402180,1
"3077","P61028","Rab8b","Ras-related protein Rab-8B","P61028_GAMGIMLVY(0.998)DIT(0.994)NEKS(0.008)FDNIKNWIR",NA,713590,NA,NA,NA,1,278660,315070,NA,195390,NA,3,NA,487700,707430,NA,2,198310,289820,NA,318980,NA,3,211970,NA,NA,NA,NA,1,370420,NA,NA,NA,1,NA,NA,NA,NA,NA,0,338910,NA,NA,NA,NA,1
"3154","Q4ACU6","Shank3","SH3 and multiple ankyrin repeat domains protein 3","Q4ACU6_LGAEEERPGT(1)PELAPAPMQAAAVAEPMPSPR",NA,293620,NA,NA,NA,1,468480,425570,NA,NA,NA,2,366600,155830,NA,296320,3,369070,625210,NA,242450,372780,4,392390,NA,NA,386900,281920,3,682980,NA,NA,286520,2,NA,NA,NA,NA,NA,0,299000,NA,NA,NA,NA,1
"3222","Q640R3","Hepacam","Hepatocyte cell adhesion molecule","Q640R3_T(0.013)HT(0.929)S(0.067)PPRAPS(0.66)S(0.331)PGR",NA,NA,NA,NA,NA,0,6036300,3738400,NA,NA,NA,2,3737400,NA,2771400,NA,2,NA,NA,NA,NA,3991800,1,3390000,NA,2686800,4529400,2314600,4,NA,NA,NA,NA,0,2911600,1904600,2435600,981260,2563100,5,NA,NA,4166500,NA,NA,1
"3236","Q6NVE8","Wdr44","WD repeat-containing protein 44","Q6NVE8_EYVSNDAT(0.5)QS(0.5)DDEEK",NA,NA,NA,NA,NA,0,NA,NA,NA,NA,NA,0,NA,NA,NA,NA,0,132330,NA,382760,NA,467060,3,NA,NA,NA,NA,NA,0,NA,NA,665040,402860,2,NA,NA,NA,NA,NA,0,NA,NA,NA,363180,NA,1
"3291","Q80TZ3","Dnajc6","Putative tyrosine-protein phosphatase auxilin","Q80TZ3_S(0.15)PS(0.15)PT(0.688)VHAS(0.008)S(0.002)T(0.003)PAVNIQPDIAGGWDWHTK",NA,NA,NA,NA,NA,0,778180,NA,NA,NA,NA,1,NA,NA,NA,NA,0,NA,NA,187720,151020,245460,3,245410,NA,NA,NA,165250,2,257900,NA,NA,NA,1,NA,NA,NA,304390,NA,1,NA,NA,NA,NA,NA,0
"3325","Q8BGV8","Mief1","Mitochondrial dynamics protein MID51","Q8BGV8_AISAPT(0.008)S(0.004)PT(0.988)R",NA,NA,NA,749370,NA,1,NA,NA,NA,NA,NA,0,NA,NA,NA,NA,0,NA,NA,NA,NA,615660,1,376220,NA,NA,494190,454810,3,NA,625850,NA,362870,2,NA,NA,NA,NA,NA,0,NA,NA,NA,NA,NA,0
"3367","Q8C8R3","Ank2","Ankyrin-2","Q8C8R3_T(0.002)PTEEGT(0.042)PT(0.943)S(0.013)EQNPFLFQEGK",NA,NA,218230,NA,NA,1,835400,NA,308070,338000,NA,3,NA,NA,258570,NA,1,913160,NA,423880,304040,438690,4,741890,250320,428400,NA,NA,3,NA,378490,NA,NA,1,591950,357210,NA,NA,NA,2,754860,NA,NA,NA,NA,1
"3392","Q8K212","Pacs1","Phosphofurin acidic cluster sorting protein 1","Q8K212_DT(0.005)T(0.954)S(0.042)PMELAALEK",NA,NA,NA,NA,NA,0,NA,NA,86240,NA,182310,2,260700,105290,147670,NA,3,NA,NA,283030,187630,215950,3,NA,NA,NA,269530,NA,1,348080,364250,NA,245420,3,NA,NA,132100,268880,NA,2,NA,NA,294480,NA,NA,1
"3483","Q9D3A8","Nos1ap","Carboxyl-terminal PDZ ligand of neuronal nitric oxide synthase protein","Q9D3A8_DGGSHIDSTVSPHPQEPMLT(0.594)AS(0.406)PR",NA,393260,NA,NA,NA,1,651770,580470,NA,NA,NA,2,468530,NA,352330,530690,3,367050,NA,NA,NA,605750,2,511390,NA,341610,301240,NA,3,670490,181740,NA,NA,2,NA,NA,NA,438660,NA,1,NA,NA,NA,NA,336210,1
"3512","Q9JL26","Fmnl1","Formin-like protein 1","Q9JL26_GPGDVVSIEILPGAAAT(0.998)PS(0.002)GDDAQAPR",NA,242950,NA,NA,NA,1,280310,354740,NA,NA,NA,2,233650,NA,NA,NA,1,196900,356810,84930,105540,126880,5,210750,NA,NA,NA,142060,2,190260,NA,NA,NA,1,NA,179850,NA,NA,NA,1,NA,NA,NA,NA,NA,0
"3600","O88343","Slc4a4","Electrogenic sodium bicarbonate cotransporter 1","O88343_IS(0.208)ENY(0.804)S(0.713)DKS(0.274)DVENADESSSSILK",NA,NA,NA,329110,NA,1,NA,606780,NA,NA,NA,1,NA,NA,NA,NA,0,431500,NA,380010,NA,291030,3,NA,NA,NA,NA,222490,1,676690,NA,NA,219430,2,NA,NA,NA,NA,NA,0,NA,NA,NA,NA,261280,1
"3623","Q5SX39","Myh4","Myosin-4","Q5SX39_AEAHFS(0.063)LVHY(0.874)AGT(0.063)VDYNIIGWLDK",NA,NA,NA,NA,NA,0,NA,750890,NA,NA,NA,1,714470,NA,NA,NA,1,696820,929270,2115500,NA,NA,3,718140,NA,NA,NA,NA,1,NA,1925600,NA,NA,1,1515700,872500,NA,NA,NA,2,NA,NA,NA,NA,NA,0
"3660","Q8VD37","Sgip1","SH3-containing GRB2-like protein 3-interacting protein 1","Q8VD37_Y(0.999)NS(0.001)PELDEEGYS(1)IR",392110,NA,NA,NA,NA,1,242380,522350,NA,NA,NA,2,450380,NA,NA,NA,1,329650,248970,NA,NA,NA,2,212570,69567,NA,355620,NA,3,455620,NA,NA,NA,1,442950,NA,NA,NA,NA,1,NA,NA,285380,NA,NA,1
